%YAML 1.1
%TAG !u! tag:unity3d.com,2011:
--- !u!21 &2100000
Material:
  serializedVersion: 6
  m_ObjectHideFlags: 0
  m_CorrespondingSourceObject: {fileID: 0}
  m_PrefabInstance: {fileID: 0}
  m_PrefabAsset: {fileID: 0}
  m_Name: FTIE01_shockwave10
  m_Shader: {fileID: 4800000, guid: 6b914419359fcfc4a8b268842ba77368, type: 3}
  m_ShaderKeywords: _USE_ALPHACLIP_ON _USE_FRESNEL_ON _USE_GREEN_ON
  m_LightmapFlags: 5
  m_EnableInstancingVariants: 0
  m_DoubleSidedGI: 0
  m_CustomRenderQueue: -1
  stringTagMap: {}
  disabledShaderPasses: []
  m_SavedProperties:
    serializedVersion: 3
    m_TexEnvs:
    - _MainTex:
        m_Texture: {fileID: 0}
        m_Scale: {x: 1, y: 1}
        m_Offset: {x: 0, y: 0}
    - _Normal:
        m_Texture: {fileID: 0}
        m_Scale: {x: 1, y: 1}
        m_Offset: {x: 0, y: 0}
    - _Texture:
        m_Texture: {fileID: 2800000, guid: 2d4185c506d8b464787d53d1b913c432, type: 3}
        m_Scale: {x: 2, y: 1}
        m_Offset: {x: 0, y: 0}
    m_Floats:
    - _AlphaClipAnimation: 1
    - _Cutoff: 0.5
    - _DisplaceStrength: 0.3
    - _Emission: 0.3
    - _Fresnel_Emission: 1
    - _Fresnel_Range: 5
    - _Fresnel_Strength: 5
    - _PannerSpeed_X: 0
    - _PannerSpeed_Y: 0
    - _SoftParticle_Value: 0
    - _UV_AnimSpeed: 1
    - _UV_Columns: 4
    - _UV_Rows: 4
    - _UV_Speed: 1
    - _Use_AlphaClip: 1
    - _Use_Blue: 0
    - _Use_Displace: 0
    - _Use_Fresnel: 1
    - _Use_Green: 1
    - _Use_Panner: 0
    - _Use_Red: 0
    - _Use_SoftPaticle: 0
    - _Use_UVanim: 0
    - _Use_UVanimation: 0
    - _X_speed: 1
    - _Y_speed: 2
    m_Colors:
    - _Color: {r: 0.5019608, g: 0.5019608, b: 0.5019608, a: 1}
    - _Color_B: {r: 0.9482776, g: 0.39785004, b: 0.09761679, a: 1}
    - _Color_G: {r: 0.99999994, g: 0.4612889, b: 0.3088235, a: 1}
    - _Color_R: {r: 0.99999994, g: 0.57785463, b: 0.10294115, a: 1}
    - _FresnelColor: {r: 0.4411765, g: 0.6794984, b: 1, a: 1}
    - _MainColor: {r: 1, g: 0.3529412, b: 0, a: 1}
