%YAML 1.1
%TAG !u! tag:unity3d.com,2011:
--- !u!21 &2100000
Material:
  serializedVersion: 6
  m_ObjectHideFlags: 0
  m_CorrespondingSourceObject: {fileID: 0}
  m_PrefabInstance: {fileID: 0}
  m_PrefabAsset: {fileID: 0}
  m_Name: FTIE01_aura02
  m_Shader: {fileID: 4800000, guid: 9f106b148150f834bb722091ef4f7195, type: 3}
  m_ShaderKeywords: 
  m_LightmapFlags: 5
  m_EnableInstancingVariants: 0
  m_DoubleSidedGI: 0
  m_CustomRenderQueue: -1
  stringTagMap: {}
  disabledShaderPasses: []
  m_SavedProperties:
    serializedVersion: 3
    m_TexEnvs:
    - _MainTex:
        m_Texture: {fileID: 0}
        m_Scale: {x: 1, y: 1}
        m_Offset: {x: 0, y: 0}
    - _Texture:
        m_Texture: {fileID: 2800000, guid: 097f963e37d2fe648b1be1174c00ae63, type: 3}
        m_Scale: {x: 1, y: 1}
        m_Offset: {x: 0, y: 0}
    m_Floats:
    - _Cutoff: 0.5
    - _Emission: 25
    - _SoftParticle_Value: 0
    - _Use_SoftPaticle: 0
    m_Colors:
    - _Color: {r: 0.5019608, g: 0.5019608, b: 0.5019608, a: 1}
