%YAML 1.1
%TAG !u! tag:unity3d.com,2011:
--- !u!21 &2100000
Material:
  serializedVersion: 6
  m_ObjectHideFlags: 0
  m_CorrespondingSourceObject: {fileID: 0}
  m_PrefabInstance: {fileID: 0}
  m_PrefabAsset: {fileID: 0}
  m_Name: Banner_X2_Generic
  m_Shader: {fileID: 4800000, guid: 75b8c64f2b4ee144a8b98ccd29ef27ac, type: 3}
  m_ShaderKeywords: 
  m_LightmapFlags: 4
  m_EnableInstancingVariants: 0
  m_DoubleSidedGI: 0
  m_CustomRenderQueue: -1
  stringTagMap: {}
  disabledShaderPasses: []
  m_SavedProperties:
    serializedVersion: 3
    m_TexEnvs:
    - _AlphaTexture:
        m_Texture: {fileID: 2800000, guid: b73f4c97202b98e42b4f7d576fa6c705, type: 3}
        m_Scale: {x: 1, y: 1}
        m_Offset: {x: 0, y: 0}
    - _MainTex:
        m_Texture: {fileID: 2800000, guid: 25255b6a15a0b934e96761ac3c74a899, type: 3}
        m_Scale: {x: 0.66, y: 1}
        m_Offset: {x: 0, y: 0}
    m_Floats:
    - _GlitchIntensity: 0.0022
    - _GlitchSpeed: 50
    - _GlowIntensity: 1
    - _HScrollSpeed: 0
    - _InvFade: 1.6165673
    - _Scale: 1
    - _ScrollSpeed: 1
    - _ScrollSpeedV: 0
    - _VScrollSpeed: 0
    m_Colors:
    - _Color: {r: 1, g: 0.98310214, b: 0, a: 1}
    - _TintColor: {r: 0.007843137, g: 1, b: 0.037123125, a: 1}
