%YAML 1.1
%TAG !u! tag:unity3d.com,2011:
--- !u!114 &11400000
MonoBehaviour:
  m_ObjectHideFlags: 0
  m_CorrespondingSourceObject: {fileID: 0}
  m_PrefabInstance: {fileID: 0}
  m_PrefabAsset: {fileID: 0}
  m_GameObject: {fileID: 0}
  m_Enabled: 1
  m_EditorHideFlags: 0
  m_Script: {fileID: -1223223985, guid: 7ab44e72661444ea4b3b72f155c6ecea, type: 3}
  m_Name: StarlitTrackBump
  m_EditorClassIdentifier: 
  mEventID: Bump
  mEventList:
  - mStartSample: 1771
    mEndSample: 1771
  - mStartSample: 37012
    mEndSample: 37012
  - mStartSample: 65953
    mEndSample: 65953
  - mStartSample: 113399
    mEndSample: 113399
  - mStartSample: 132496
    mEndSample: 132496
  - mStartSample: 151199
    mEndSample: 151199
  - mStartSample: 188999
    mEndSample: 188999
  - mStartSample: 207112
    mEndSample: 207112
  - mStartSample: 216956
    mEndSample: 216956
  - mStartSample: 244715
    mEndSample: 244715
  - mStartSample: 264599
    mEndSample: 264599
  - mStartSample: 274246
    mEndSample: 274246
  - mStartSample: 282712
    mEndSample: 282712
  - mStartSample: 292162
    mEndSample: 292162
  - mStartSample: 340002
    mEndSample: 340002
  - mStartSample: 357918
    mEndSample: 357918
  - mStartSample: 367762
    mEndSample: 367762
  - mStartSample: 414815
    mEndSample: 414815
  - mStartSample: 423674
    mEndSample: 423674
  - mStartSample: 432533
    mEndSample: 432533
  - mStartSample: 442574
    mEndSample: 442574
  - mStartSample: 490808
    mEndSample: 490808
  - mStartSample: 509118
    mEndSample: 509118
  - mStartSample: 519355
    mEndSample: 519355
  - mStartSample: 567590
    mEndSample: 567590
  - mStartSample: 585111
    mEndSample: 585111
  - mStartSample: 606571
    mEndSample: 606571
  - mStartSample: 641811
    mEndSample: 641811
  - mStartSample: 670752
    mEndSample: 670752
  - mStartSample: 718199
    mEndSample: 718199
  - mStartSample: 737296
    mEndSample: 737296
  - mStartSample: 755999
    mEndSample: 755999
  - mStartSample: 793799
    mEndSample: 793799
  - mStartSample: 811911
    mEndSample: 811911
  - mStartSample: 821755
    mEndSample: 821755
  - mStartSample: 849514
    mEndSample: 849514
  - mStartSample: 869399
    mEndSample: 869399
  - mStartSample: 879045
    mEndSample: 879045
  - mStartSample: 887511
    mEndSample: 887511
  - mStartSample: 896961
    mEndSample: 896961
  - mStartSample: 944802
    mEndSample: 944802
  - mStartSample: 962717
    mEndSample: 962717
  - mStartSample: 972561
    mEndSample: 972561
  - mStartSample: 1019614
    mEndSample: 1019614
  - mStartSample: 1028473
    mEndSample: 1028473
  - mStartSample: 1037333
    mEndSample: 1037333
  - mStartSample: 1047373
    mEndSample: 1047373
  - mStartSample: 1095608
    mEndSample: 1095608
  - mStartSample: 1113917
    mEndSample: 1113917
  - mStartSample: 1124155
    mEndSample: 1124155
  - mStartSample: 1172389
    mEndSample: 1172389
  - mStartSample: 1189911
    mEndSample: 1189911
  - mStartSample: 1209598
    mEndSample: 1209598
  - mStartSample: 1248776
    mEndSample: 1248776
  - mStartSample: 1275354
    mEndSample: 1275354
  - mStartSample: 1323786
    mEndSample: 1323786
  - mStartSample: 1351545
    mEndSample: 1351545
  - mStartSample: 1360800
    mEndSample: 1360800
  - mStartSample: 1435611
    mEndSample: 1435611
  - mStartSample: 1445257
    mEndSample: 1445257
  - mStartSample: 1454511
    mEndSample: 1454511
  - mStartSample: 1463567
    mEndSample: 1463567
  - mStartSample: 1474001
    mEndSample: 1474001
  - mStartSample: 1492901
    mEndSample: 1492901
  - mStartSample: 1511210
    mEndSample: 1511210
  - mStartSample: 1549207
    mEndSample: 1549207
  - mStartSample: 1577164
    mEndSample: 1577164
  - mStartSample: 1624807
    mEndSample: 1624807
  - mStartSample: 1654142
    mEndSample: 1654142
  - mStartSample: 1738995
    mEndSample: 1738995
  - mStartSample: 1776598
    mEndSample: 1776598
  - mStartSample: 1814398
    mEndSample: 1814398
  - mStartSample: 1853576
    mEndSample: 1853576
  - mStartSample: 1880154
    mEndSample: 1880154
  - mStartSample: 1928585
    mEndSample: 1928585
  - mStartSample: 1956344
    mEndSample: 1956344
  - mStartSample: 2040410
    mEndSample: 2040410
  - mStartSample: 2050057
    mEndSample: 2050057
  - mStartSample: 2059310
    mEndSample: 2059310
  - mStartSample: 2068366
    mEndSample: 2068366
  - mStartSample: 2078801
    mEndSample: 2078801
  - mStartSample: 2097701
    mEndSample: 2097701
  - mStartSample: 2116010
    mEndSample: 2116010
  - mStartSample: 2154007
    mEndSample: 2154007
  - mStartSample: 2181963
    mEndSample: 2181963
  - mStartSample: 2229607
    mEndSample: 2229607
  - mStartSample: 2258941
    mEndSample: 2258941
  - mStartSample: 2343794
    mEndSample: 2343794
  - mStartSample: 2381397
    mEndSample: 2381397
  _SerializedPayloadTypes:
  - SonicBloom.Koreo.FloatPayload
  _AssetPayloads: []
  _AssetPayloadIdxs: 
  _ColorPayloads: []
  _ColorPayloadIdxs: 
  _CurvePayloads: []
  _CurvePayloadIdxs: 
  _FloatPayloads:
  - mFloatVal: 75
  - mFloatVal: 70
  - mFloatVal: 79
  - mFloatVal: 70
  - mFloatVal: 74
  - mFloatVal: 75
  - mFloatVal: 70
  - mFloatVal: 80
  - mFloatVal: 79
  - mFloatVal: 75
  - mFloatVal: 79
  - mFloatVal: 80
  - mFloatVal: 82
  - mFloatVal: 75
  - mFloatVal: 70
  - mFloatVal: 68
  - mFloatVal: 67
  - mFloatVal: 79
  - mFloatVal: 80
  - mFloatVal: 82
  - mFloatVal: 75
  - mFloatVal: 70
  - mFloatVal: 68
  - mFloatVal: 67
  - mFloatVal: 70
  - mFloatVal: 74
  - mFloatVal: 75
  - mFloatVal: 70
  - mFloatVal: 79
  - mFloatVal: 70
  - mFloatVal: 74
  - mFloatVal: 75
  - mFloatVal: 70
  - mFloatVal: 80
  - mFloatVal: 79
  - mFloatVal: 75
  - mFloatVal: 79
  - mFloatVal: 80
  - mFloatVal: 82
  - mFloatVal: 75
  - mFloatVal: 70
  - mFloatVal: 68
  - mFloatVal: 67
  - mFloatVal: 79
  - mFloatVal: 80
  - mFloatVal: 82
  - mFloatVal: 75
  - mFloatVal: 70
  - mFloatVal: 68
  - mFloatVal: 67
  - mFloatVal: 70
  - mFloatVal: 74
  - mFloatVal: 79
  - mFloatVal: 74
  - mFloatVal: 75
  - mFloatVal: 70
  - mFloatVal: 67
  - mFloatVal: 70
  - mFloatVal: 72
  - mFloatVal: 74
  - mFloatVal: 75
  - mFloatVal: 77
  - mFloatVal: 80
  - mFloatVal: 79
  - mFloatVal: 74
  - mFloatVal: 75
  - mFloatVal: 70
  - mFloatVal: 82
  - mFloatVal: 80
  - mFloatVal: 77
  - mFloatVal: 79
  - mFloatVal: 74
  - mFloatVal: 75
  - mFloatVal: 70
  - mFloatVal: 67
  - mFloatVal: 70
  - mFloatVal: 72
  - mFloatVal: 74
  - mFloatVal: 75
  - mFloatVal: 77
  - mFloatVal: 80
  - mFloatVal: 79
  - mFloatVal: 74
  - mFloatVal: 75
  - mFloatVal: 70
  - mFloatVal: 82
  - mFloatVal: 80
  - mFloatVal: 77
  _FloatPayloadIdxs: 000000000100000002000000030000000400000005000000060000000700000008000000090000000a0000000b0000000c0000000d0000000e0000000f000000100000001100000012000000130000001400000015000000160000001700000018000000190000001a0000001b0000001c0000001d0000001e0000001f000000200000002100000022000000230000002400000025000000260000002700000028000000290000002a0000002b0000002c0000002d0000002e0000002f0000003000000031000000320000003300000034000000350000003600000037000000380000003a0000003b0000003c0000003d0000003e0000003f000000400000004100000042000000430000004400000045000000460000004700000048000000490000004a0000004b0000004c0000004d0000004e0000004f000000500000005100000052000000530000005400000055000000560000005700000058000000
  _GradientPayloads: []
  _GradientPayloadIdxs: 
  _IntPayloads: []
  _IntPayloadIdxs: 
  _SpectrumPayloads: []
  _SpectrumPayloadIdxs: 
  _TextPayloads: []
  _TextPayloadIdxs: 
