%YAML 1.1
%TAG !u! tag:unity3d.com,2011:
--- !u!1045 &1
EditorBuildSettings:
  m_ObjectHideFlags: 0
  serializedVersion: 2
  m_Scenes:
  - enabled: 1
    path: Assets/_Demolition/Scenes/_Rythmverse Demolition Scene.unity
    guid: f14b3e55e599e99459d84b7649f33ece
  - enabled: 1
    path: Assets/Oculus/VR/Scenes/MRC.unity
    guid: c249320cff740054f973da7f7e24bd1f
  - enabled: 1
    path: Assets/Plugins/Excelsior/CSFHI/Scenes/CSFHI_ColorsExample.unity
    guid: c23be1b216cf6204f9a0f2cc9206b7e4
  - enabled: 1
    path: Assets/Plugins/Excelsior/CSFHI/Scenes/CSFHI_Gridroom.unity
    guid: b421041e1a21ac44a97adcc7bffb54c3
  - enabled: 1
    path: Assets/Plugins/Excelsior/CSFHI/Scenes/CSFHI_Showroom.unity
    guid: 7dfb3ce2692d7b444b2bb8be75989074
  - enabled: 1
    path: Assets/Plugins/Excelsior/CSFHI/Scenes/CSFHI_ShowroomNight.unity
    guid: 84a071e3552517746982948661ad9f82
  m_configObjects:
    Unity.XR.Oculus.Settings: {fileID: 11400000, guid: bfa1182bd221b4ca89619141f66f1260,
      type: 2}
    Unity.XR.WindowsMR.Settings: {fileID: 11400000, guid: dc5a169419fa04987b057f65238cf3ba,
      type: 2}
    UnityEditor.XR.ARCore.ARCoreSettings: {fileID: 11400000, guid: 041a3d6a59b4c7046a4ced637e11122e,
      type: 2}
    com.unity.xr.management.loader_settings: {fileID: 11400000, guid: 1a4c68ca72a83449f938d669337cb305,
      type: 2}
    com.unity.xr.openxr.settings4: {fileID: 11400000, guid: 5fb115983bf992247af8201979bd5c6f,
      type: 2}
